<?xml version="1.0" encoding="utf-8"?>
<!-- Generator: Adobe Illustrator 16.0.3, SVG Export Plug-In . SVG Version: 6.00 Build 0)  -->
<!DOCTYPE svg PUBLIC "-//W3C//DTD SVG 1.1//EN" "http://www.w3.org/Graphics/SVG/1.1/DTD/svg11.dtd">
<svg version="1.1" id="Ebene_1" xmlns="http://www.w3.org/2000/svg" xmlns:xlink="http://www.w3.org/1999/xlink" x="0px" y="0px"
	 width="120px" height="120px" viewBox="0 0 120 120" enable-background="new 0 0 120 120" xml:space="preserve">
<rect fill="#13A4DF" width="120" height="120"/>
<g enable-background="new    ">
	<path d="M29.877,96.824h9.23V36.906H25.08v15.175H14.859V27.259h60.334v24.821H65.024V36.906H51.049v59.918h9.074v9.594H29.877
		V96.824z"/>
</g>
<g enable-background="new    ">
	<path fill="#FFFFFF" d="M65.612,45.083c1.279,0.306,2.558,0.459,3.838,0.459c1.349,0,2.312-0.32,2.89-0.96
		c0.576-0.64,0.865-1.683,0.865-3.129V21.888h-3.358v-3.984h11.097v3.984h-2.941v19.941c0,2.656-0.674,4.651-2.023,5.986
		c-1.349,1.335-3.323,2.002-5.924,2.002c-2.169,0-3.963-0.181-5.381-0.542L65.612,45.083z"/>
	<path fill="#FFFFFF" d="M94.73,49.984c-3.685,0-6.118-1.161-7.3-3.483v3.066h-3.755V38.971h3.922
		c0.306,2.531,0.977,4.318,2.013,5.361s2.576,1.564,4.62,1.564c3.699,0,5.549-1.453,5.549-4.359c0-1.169-0.41-2.19-1.23-3.066
		c-0.821-0.876-2.037-1.655-3.65-2.337c-2.629-1.098-4.453-1.926-5.477-2.481c-1.021-0.557-1.9-1.192-2.638-1.909
		c-0.737-0.716-1.332-1.564-1.784-2.545c-0.451-0.979-0.678-2.165-0.678-3.556c0-2.42,0.828-4.384,2.482-5.893
		s3.803-2.264,6.445-2.264c3.254,0,5.402,1.022,6.445,3.066v-2.649h3.713v9.929h-3.879c-0.237-2.141-0.821-3.688-1.753-4.641
		s-2.231-1.429-3.9-1.429c-1.585,0-2.792,0.352-3.619,1.053c-0.827,0.703-1.241,1.646-1.241,2.827c0,1.084,0.396,2.037,1.189,2.857
		s2.029,1.585,3.713,2.294c2.628,1.113,4.453,1.947,5.475,2.504c1.022,0.556,1.902,1.195,2.639,1.919
		c0.737,0.723,1.328,1.582,1.773,2.576s0.668,2.173,0.668,3.535c0,2.712-0.873,4.832-2.618,6.362
		C100.109,49.22,97.734,49.984,94.73,49.984z"/>
</g>
</svg>
